…
#>  3 https://www.r… https://github.co… regex                  200 Success         
#>  4 https://www.r… https://en.wikipe… Wikipedia              200 Success         
#>  5 https://www.r… https://cran.r-pr… how-to vign…           404 Client error    
#>  6 https://www.r… https://www.htmlw… htmlwidget             200 Success         
#>  7 https://www.r… https://github.co… ggsci                  200 Success         
#>  8 https://www.r… https://rostrum.b… Adriana                200 Success         
#>  9 https://www.r… https://xkcd.com/… relevant xk…           200 Success         
#> 10 https://www.r… https://github.co… RTrek                  200 Success         
#> 11 https://www.r… https://en.wikipe… Wikipedia              200 Success         
#> 12 https://www.r… https://creativec… CC BY-NC-SA…           200 Success         
#> 13 https://www.r… https://www.rostr… Feed                   200 Success         
#> 14 https://www.r… https://github.co… Source                 200 Success         
#> 
#> $`two-dogs-in-toilet-elderly-lady-involved`
#> # A tibble: 30 x 5
#>    page            link_url          link_text    response_code response_catego…
#>    <chr>           <chr>             <chr>                <int> <chr>           
#>  1 https://www.ro… https://www.twit… @mattdray              200 Success         
#>  2 https://www.ro… https://data.lon… the London …           200 Success         
#>  3 https://www.ro… https://github.c… the sf pack…           200 Success         
#>  4 https://www.ro… https://rstudio.… interactive…           200 Success         
#>  5 https://www.ro… https://en.wikip… eastings an…           200 Success         
#>  6 https://www.ro… https://en.wikip… latitude               200 Success         
#>  7 https://www.ro… https://en.wikip… longitude              200 Success         
#>  8 https://www.ro… https://rstudio.… leaflet                200 Success         
#>  9 https://www.ro… https://www.r-pr… R                      200 Success         
#> 10 https://www.ro… https://github.c… sf (‘simple…           200 Success         
#> # … with 20 more rows
…
